<?xml version="1.0" encoding="utf-8" standalone="no"?><!-- Generator: Adobe Illustrator 22.1.0, SVG Export Plug-In . SVG Version: 6.00 Build 0)  --><svg xmlns="http://www.w3.org/2000/svg" xmlns:xlink="http://www.w3.org/1999/xlink" height="80px" id="Laag_1" style="enable-background:new 0 0 85 80;" version="1.1" viewBox="0 0 85 80" width="85px" x="0px" xml:space="preserve" y="0px">
<style type="text/css">
	.st0{fill:#00B5DD;}
</style>
<title>rekenkamer-mobile-logo</title>
<circle class="st0" cx="18.09" cy="39.61" r="18.09"/>
<ellipse class="st0" cx="61.32" cy="40" rx="36.16" ry="9.67" transform="matrix(0.5 -0.866 0.866 0.5 -3.9852 73.1069)"/>
</svg>